<?xml version="1.0"?>
<robot name="quadrifoglio">

  <material name="grey">
    <color rgba="1 1 1 1"/>
  </material>
  <material name="black">
    <color rgba="0 0 0 1"/>
  </material>
  <material name="yellow">
    <color rgba="1 1 0 1"/>
  </material>

  <link name="base_link">
    <visual>
      <geometry>
        <box size="0.095 0.15 0.008"/>
      </geometry>
      <origin rpy="0 0 0" xyz="0 0 0.03"/>
      <material name="grey"/>
    </visual>

    <visual>
      <geometry>
        <box size="0.095 0.15 0.008"/>
      </geometry>
      <origin rpy="0 0 0" xyz="0 0 0.075"/>
    </visual>

    <visual>
      <geometry>
        <box size="0.1257 0.032 0.008"/>
      </geometry>
      <origin rpy="0 0 0" xyz="0.11125 0 0.03"/>
    </visual>

    <visual>
      <geometry>
        <box size="0.1257 0.032 0.008"/>
      </geometry>
      <origin rpy="0 0 0" xyz="-0.11125 0 0.03"/>
    </visual>

    <visual>
      <geometry>
        <box size="0.1257 0.032 0.008"/>
      </geometry>
      <origin rpy="0 0 0" xyz="0.11125 0 0.075"/>
    </visual>

    <visual>
      <geometry>
        <box size="0.1257 0.032 0.008"/>
      </geometry>
      <origin rpy="0 0 0" xyz="-0.11125 0 0.075"/>
    </visual>
  </link>

  <link name="left_front_carrier">
    <visual>
      <geometry>
        <box size="0.02 0.06 0.01"/>
      </geometry>
      <origin rpy="0 0 0" xyz="0 0.03 0"/>
    </visual>
  </link>

  <link name="right_front_carrier">
    <visual>
      <geometry>
        <box size="0.02 0.06 0.01"/>
      </geometry>
      <origin rpy="0 0 0" xyz="0 -0.03 0"/>
    </visual>
  </link>

  <link name="left_rear_carrier">
    <visual>
      <geometry>
        <box size="0.02 0.06 0.01"/>
      </geometry>
      <origin rpy="0 0 0" xyz="0 0.03 0"/>
    </visual>
  </link>

  <link name="right_rear_carrier">
    <visual>
      <geometry>
        <box size="0.02 0.06 0.01"/>
      </geometry>
      <origin rpy="0 0 0" xyz="0 -0.03 0"/>
    </visual>
  </link>

  <link name="lidar">
    <visual>
      <geometry>
        <cylinder length="0.02" radius ="0.0325"/>
      </geometry>
      <origin rpy="0 0 0" xyz="0 0 0"/>
      <material name="yellow"/>
    </visual>
  </link>

  <link name="imu">
    <visual>
      <geometry>
        <box size="0.02 0.01 0.01"/>
      </geometry>
      <origin rpy="0 0 0" xyz="0 0 0"/>
      <material name="yellow"/>
    </visual>
  </link>

  <link name="fl_ultra">
    <visual>
      <geometry>
        <box size="0.015 0.015 0.05"/>
      </geometry>
      <origin rpy="0 0 0" xyz="0 0 0"/>
      <material name="yellow"/>
    </visual>
  </link>

  <link name="fr_ultra">
    <visual>
      <geometry>
        <box size="0.015 0.015 0.05"/>
      </geometry>
      <origin rpy="0 0 0" xyz="0 0 0"/>
      <material name="yellow"/>
    </visual>
  </link>

  <link name="rl_ultra">
    <visual>
      <geometry>
        <box size="0.015 0.015 0.05"/>
      </geometry>
      <origin rpy="0 0 0" xyz="0 0 0"/>
      <material name="yellow"/>
    </visual>
  </link>

  <link name="rr_ultra">
    <visual>
      <geometry>
        <box size="0.015 0.015 0.05"/>
      </geometry>
      <origin rpy="0 0 0" xyz="0 0 0"/>
      <material name="yellow"/>
    </visual>
  </link>

  <link name="f_ultra">
    <visual>
      <geometry>
        <box size="0.015 0.015 0.05"/>
      </geometry>
      <origin rpy="0 0 0" xyz="0 0 0"/>
      <material name="yellow"/>
    </visual>
  </link>

  <link name="r_ultra">
    <visual>
      <geometry>
        <box size="0.015 0.015 0.05"/>
      </geometry>
      <origin rpy="0 0 0" xyz="0 0 0"/>
      <material name="yellow"/>
    </visual>
  </link>

  <joint name="base_to_lidar" type="fixed">
    <parent link="base_link"/>
    <child link="lidar"/>
    <origin xyz="0.13 0 0.17" rpy="0 0 3.14159"/>
  </joint>

  <joint name="base_to_imu" type="fixed">
    <parent link="base_link"/>
    <child link="imu"/>
    <origin xyz="0 -0.03 0.09" rpy="0 0 0"/>
  </joint>

  <joint name="base_to_fl_ultra" type="fixed">
    <parent link="base_link"/>
    <child link="fl_ultra"/>
    <origin xyz="0.2 0.05 0.075" rpy="0 0 1.57075"/>
  </joint>

  <joint name="base_to_fr_ultra" type="fixed">
    <parent link="base_link"/>
    <child link="fr_ultra"/>
    <origin xyz="0.2 -0.05 0.075" rpy="0 0 -1.57075"/>
  </joint>

  <joint name="base_to_rl_ultra" type="fixed">
    <parent link="base_link"/>
    <child link="rl_ultra"/>
    <origin xyz="-0.2 0.05 0.075" rpy="0 0 1.57075"/>
  </joint>

  <joint name="base_to_rr_ultra" type="fixed">
    <parent link="base_link"/>
    <child link="rr_ultra"/>
    <origin xyz="-0.2 -0.05 0.075" rpy="0 0 -1.57075"/>
  </joint>

  <joint name="base_to_f_ultra" type="revolute">
    <axis xyz="0 0 1"/>
    <limit effort="1000.0" lower="-0.9" upper="0.9" velocity="0.5"/>
    <parent link="base_link"/>
    <child link="f_ultra"/>
    <origin rpy="0 0 0" xyz="0.21 0 0.075"/>
  </joint>

  <joint name="base_to_r_ultra" type="revolute">
    <axis xyz="0 0 1"/>
    <limit effort="1000.0" lower="-0.9" upper="0.9" velocity="0.5"/>
    <parent link="base_link"/>
    <child link="r_ultra"/>
    <origin rpy="0 0 3.14159" xyz="-0.21 0 0.075"/>
  </joint>

  <joint name="base_to_leftfront" type="fixed">
    <parent link="base_link"/>
    <child link="left_front_carrier"/>
    <origin xyz="0.1275 0.02 0.075"/>
  </joint>

  <joint name="base_to_rightfront" type="fixed">
    <parent link="base_link"/>
    <child link="right_front_carrier"/>
    <origin xyz="0.1275 -0.02 0.075"/>
  </joint>

  <joint name="base_to_leftrear" type="fixed">
    <parent link="base_link"/>
    <child link="left_rear_carrier"/>
    <origin xyz="-0.1275 0.02 0.075"/>
  </joint>

  <joint name="base_to_rightrear" type="fixed">
    <parent link="base_link"/>
    <child link="right_rear_carrier"/>
    <origin xyz="-0.1275 -0.02 0.075"/>
  </joint>

  <link name="left_front_wheel">
    <visual>
      <geometry>
        <cylinder length="0.02" radius ="0.03"/>
      </geometry>
      <origin rpy="1.57075 0 0" xyz="0 0 0"/>
      <material name="yellow"/>
    </visual>
  </link>

  <link name="right_front_wheel">
    <visual>
      <geometry>
        <cylinder length="0.02" radius ="0.03"/>
      </geometry>
      <origin rpy="1.57075 0 0" xyz="0 0 0"/>
      <material name="yellow"/>
    </visual>
  </link>

  <link name="left_rear_wheel">
    <visual>
      <geometry>
        <cylinder length="0.02" radius ="0.03"/>
      </geometry>
      <origin rpy="1.57075 0 0" xyz="0 0 0"/>
      <material name="yellow"/>
    </visual>
  </link>

  <link name="right_rear_wheel">
    <visual>
      <geometry>
        <cylinder length="0.02" radius ="0.03"/>
      </geometry>
      <origin rpy="1.57075 0 0" xyz="0 0 0"/>
      <material name="yellow"/>
    </visual>
  </link>

  <joint name="frontLeftWheelAngle" type="revolute">
    <axis xyz="0 0 1"/>
    <limit effort="1000.0" lower="-1.5707" upper="1.5708" velocity="0.5"/>
    <parent link="left_front_carrier"/>
    <child link="left_front_wheel"/>
    <origin xyz="0 0.05 -0.045"/>
  </joint>

  <joint name="frontRightWheelAngle" type="revolute">
    <axis xyz="0 0 1"/>
    <limit effort="1000.0" lower="-1.5707" upper="1.5708" velocity="0.5"/>
    <parent link="right_front_carrier"/>
    <child link="right_front_wheel"/>
    <origin xyz="0 -0.05 -0.045"/>
  </joint>

  <joint name="rearLeftWheelAngle" type="revolute">
    <axis xyz="0 0 1"/>
    <limit effort="1000.0" lower="-1.5707" upper="1.5708" velocity="0.5"/>
    <parent link="left_rear_carrier"/>
    <child link="left_rear_wheel"/>
    <origin xyz="0 0.05 -0.045"/>
  </joint>

  <joint name="rearRightWheelAngle" type="revolute">
    <axis xyz="0 0 1"/>
    <limit effort="1000.0" lower="-1.5707" upper="1.5708" velocity="0.5"/>
    <parent link="right_rear_carrier"/>
    <child link="right_rear_wheel"/>
    <origin xyz="0 -0.05 -0.045"/>
  </joint>

</robot>
